%YAML 1.1
%TAG !u! tag:unity3d.com,2011:
--- !u!1045 &1
EditorBuildSettings:
  m_ObjectHideFlags: 0
  serializedVersion: 2
  m_Scenes:
  - enabled: 1
    path: Assets/Scenes/MainScene.unity
    guid: 9fc0d4010bbf28b4594072e72b8655ab
  - enabled: 1
    path: Assets/Scenes/CubeScene.unity
    guid: 9c40ab7357303b54cb52588363972618
  - enabled: 1
    path: Assets/Scenes/SphereScene.unity
    guid: 67fc82e91439b0346923732730b5673a
  m_configObjects:
    Unity.XR.Oculus.Settings: {fileID: 0}
    Unity.XR.WindowsMR.Settings: {fileID: 0}
    com.unity.xr.management.loader_settings: {fileID: 11400000, guid: a378fc9adfcbcd3409348dbf2e1966fd,
      type: 2}
